id_kurir,email,nama_perusahaan
1,fsuddickf@webnode.com,Tromp Group
2,rglendiningg@ning.com,Barton Group
3,ncluderayh@umn.edu,Barton-Thiel
4,bdulakei@jalbum.net,Jones and Sons
5,swattonj@ocn.ne.jp,"Yundt, Schneider and Kiehn"
