id_transaksi_pembelian,waktu_pembelian,total_pembayaran,id_konsumen
1,13/01/2020,50000,1
2,22/07/2019,50000,2
3,10/06/2019,50000,3
4,06/06/2019,75000,5
5,07/12/2019,75000,4
6,07/05/2019,75000,1
7,18/12/2019,75000,2
8,19/03/2020,75000,3
9,04/10/2019,75000,5
10,31/12/2019,100000,4
11,21/04/2019,100000,1
12,29/02/2020,100000,2
13,06/08/2019,100000,3
14,31/12/2019,200000,5
15,14/12/2019,200000,4
